refV = 3945
0,  11.81,  8.94,  3916.56,  2.88 
1,  44.75,  42.88,  3912.62,  3.56 
2,  82.25,  81.38,  3913.75,  3.12 
3,  120.31,  119.31,  3912.75,  3.44 
4,  159.38,  159.00,  3914.62,  3.75 
5,  200.44,  198.62,  3913.75,  3.50 
6,  240.31,  237.19,  3914.25,  3.12 
7,  280.12,  277.06,  3913.69,  3.62 
8,  320.62,  316.62,  3915.00,  3.38 
9,  358.44,  355.00,  3914.50,  3.62 
10,  397.50,  397.56,  3913.94,  3.00 
11,  437.31,  439.75,  3915.81,  4.50 
12,  477.06,  475.44,  3914.00,  52.88 
13,  515.88,  507.50,  3913.38,  245.38 
14,  555.31,  531.62,  3894.75,  655.19 
15,  594.25,  552.25,  3867.25,  1204.56 
16,  633.44,  571.19,  3835.19,  1813.56 
17,  673.50,  588.00,  3802.75,  2427.19 
18,  714.56,  603.06,  3771.62,  3003.44 
19,  755.94,  613.88,  3760.62,  3257.12 
20,  794.31,  618.69,  3754.81,  3334.81 
21,  834.38,  621.06,  3754.75,  3362.62 
22,  872.25,  622.12,  3754.62,  3378.12 
23,  909.25,  623.44,  3755.06,  3389.81 
24,  947.12,  624.56,  3753.62,  3398.69 
25,  988.81,  625.38,  3753.81,  3407.81 
26,  1031.31,  626.81,  3753.62,  3415.06 
27,  1069.81,  627.75,  3752.19,  3421.38 
28,  1109.75,  628.38,  3749.50,  3426.06 
29,  1151.19,  629.44,  3748.06,  3433.38 
30,  1189.81,  630.38,  3753.44,  3439.06 
31,  1229.75,  631.19,  3755.44,  3445.19 
32,  1267.69,  631.94,  3755.38,  3450.25 
33,  1304.88,  632.00,  3753.88,  3454.81 
34,  1343.44,  632.75,  3754.75,  3461.44 
35,  1385.19,  633.88,  3754.00,  3464.94 
36,  1425.75,  634.00,  3754.19,  3469.94 
37,  1464.38,  634.75,  3753.62,  3474.31 
38,  1504.50,  635.19,  3753.06,  3480.06 
39,  1544.69,  635.06,  3751.12,  3484.12 
40,  1584.94,  636.12,  3752.12,  3488.81 
41,  1624.12,  636.25,  3754.88,  3493.81 
42,  1663.81,  636.06,  3754.94,  3497.56 
43,  1699.44,  638.75,  3753.38,  3500.94 
44,  1737.88,  640.75,  3754.75,  3505.75 
45,  1776.56,  639.00,  3754.81,  3510.69 
46,  1814.75,  638.12,  3754.00,  3514.75 
47,  1855.56,  634.50,  3754.00,  3518.75 
48,  1898.00,  642.38,  3754.50,  3523.81 
49,  1939.38,  640.50,  3753.38,  3526.81 
50,  1978.81,  641.25,  3754.06,  3530.94 
51,  2018.38,  641.88,  3754.06,  3534.19 
52,  2058.06,  641.88,  3754.75,  3539.81 
53,  2095.00,  650.50,  3754.94,  3543.38 
54,  2133.38,  648.62,  3754.38,  3547.38 
55,  2171.00,  647.12,  3754.88,  3551.69 
56,  2210.06,  645.25,  3755.06,  3555.25 
57,  2250.81,  643.88,  3754.44,  3558.38 
58,  2293.00,  647.00,  3755.94,  3564.25 
59,  2334.06,  646.75,  3755.06,  3567.75 
60,  2372.75,  647.00,  3757.31,  3571.75 
61,  2411.88,  646.38,  3757.31,  3575.25 
62,  2450.38,  647.19,  3756.94,  3578.69 
63,  2486.81,  648.50,  3755.50,  3581.56 
64,  2525.31,  648.50,  3757.25,  3588.00 
65,  2566.69,  648.75,  3757.94,  3592.44 
66,  2605.75,  649.75,  3756.56,  3596.00 
67,  2645.25,  649.69,  3756.12,  3599.25 
68,  2687.62,  649.75,  3755.00,  3603.25 
69,  2729.06,  650.75,  3755.00,  3607.06 
70,  2767.00,  650.75,  3755.00,  3609.56 
71,  2806.25,  651.19,  3758.69,  3614.94 
72,  2845.00,  651.44,  3759.38,  3617.94 
73,  2881.69,  651.88,  3760.19,  3622.00 
74,  2919.00,  652.81,  3759.50,  3625.00 
75,  2960.25,  652.69,  3758.75,  3629.75 
76,  3001.19,  653.44,  3757.19,  3632.75 
77,  3041.12,  653.56,  3756.94,  3636.81 
78,  3081.25,  653.44,  3756.94,  3641.50 
79,  3121.44,  654.00,  3756.00,  3644.44 
80,  3160.94,  654.44,  3757.00,  3647.62 
81,  3198.00,  654.44,  3756.62,  3651.81 
82,  3238.00,  655.31,  3755.38,  3654.81 
83,  3275.69,  654.75,  3757.81,  3661.12 
84,  3315.44,  655.62,  3756.88,  3661.75 
85,  3353.12,  655.94,  3757.19,  3664.94 
86,  3392.12,  655.31,  3756.94,  3670.19 
87,  3432.00,  656.56,  3757.44,  3674.50 
88,  3472.56,  655.00,  3756.94,  3678.62 
89,  3512.50,  655.00,  3756.50,  3682.19 
90,  3551.12,  659.94,  3756.00,  3685.94 
91,  3590.62,  662.56,  3753.62,  3688.69 
92,  3630.56,  660.12,  3756.06,  3692.88 
93,  3669.50,  660.12,  3757.75,  3696.56 
94,  3709.38,  661.75,  3759.25,  3701.75 
95,  3749.81,  660.94,  3758.88,  3703.94 
96,  3790.00,  662.06,  3758.75,  3707.50 
97,  3829.56,  662.12,  3759.19,  3711.56 
98,  3867.56,  662.75,  3758.38,  3714.69 
99,  3895.25,  662.38,  3758.81,  3718.25 
100,  3896.19,  660.12,  3759.50,  3717.38 
