refV = 3961
0,  7.06,  7.12,  3750.00,  3469.81 
1,  45.12,  46.81,  3752.38,  3469.19 
2,  84.38,  87.50,  3753.62,  3470.25 
3,  124.25,  124.38,  3754.69,  3469.19 
4,  163.00,  167.00,  3753.94,  3469.88 
5,  200.25,  205.62,  3753.56,  3468.44 
6,  241.00,  246.00,  3752.75,  3467.94 
7,  282.38,  285.00,  3752.38,  3467.25 
8,  322.44,  325.12,  3750.88,  3467.19 
9,  362.25,  363.12,  3751.62,  3465.19 
10,  402.88,  405.12,  3750.44,  3464.00 
11,  440.56,  447.44,  3748.50,  3462.62 
12,  481.00,  486.94,  3746.06,  3460.06 
13,  519.56,  525.50,  3741.62,  3457.31 
14,  559.19,  565.00,  3737.25,  3452.75 
15,  597.38,  603.81,  3730.06,  3445.25 
16,  636.75,  642.56,  3715.06,  3431.81 
17,  676.81,  681.12,  3681.12,  3400.75 
18,  717.56,  721.19,  3505.25,  3238.25 
19,  758.12,  761.19,  3066.56,  2832.06 
20,  797.38,  799.44,  2618.69,  2415.50 
21,  835.00,  838.88,  2195.00,  2024.81 
22,  873.19,  876.31,  1802.94,  1660.75 
23,  910.25,  915.44,  1447.31,  1331.19 
24,  947.00,  954.94,  1130.88,  1037.31 
25,  984.19,  993.00,  862.81,  789.50 
26,  1025.75,  1032.94,  632.25,  576.31 
27,  1069.44,  1073.38,  446.25,  407.44 
28,  1110.00,  1112.62,  302.69,  277.25 
29,  1149.88,  1152.06,  203.94,  183.06 
30,  1189.88,  1191.56,  137.25,  115.38 
31,  1230.50,  1230.75,  87.44,  71.31 
32,  1267.94,  1270.44,  54.56,  40.38 
33,  1305.75,  1310.19,  33.44,  22.31 
34,  1343.44,  1349.69,  19.94,  9.69 
35,  1381.62,  1388.94,  12.38,  4.81 
36,  1425.19,  1429.38,  7.38,  6.31 
37,  1466.62,  1468.00,  5.88,  6.00 
38,  1504.88,  1508.19,  4.94,  5.75 
39,  1546.00,  1547.81,  4.62,  6.19 
40,  1586.69,  1587.12,  5.25,  7.50 
41,  1625.44,  1625.88,  5.62,  6.62 
42,  1665.38,  1664.62,  5.81,  6.75 
43,  1701.56,  1704.06,  6.44,  6.00 
44,  1738.12,  1747.00,  6.25,  7.00 
45,  1777.81,  1784.88,  6.50,  6.50 
46,  1816.62,  1822.75,  7.12,  6.81 
47,  1857.81,  1866.06,  6.38,  6.56 
48,  1900.38,  1905.38,  6.00,  5.94 
49,  1941.12,  1944.69,  6.19,  5.62 
50,  1982.75,  1983.00,  6.00,  6.12 
51,  2021.50,  2022.44,  6.12,  6.38 
52,  2060.38,  2060.56,  5.94,  5.19 
53,  2098.19,  2099.94,  7.12,  7.12 
54,  2135.88,  2146.19,  7.44,  6.31 
55,  2173.81,  2184.62,  7.38,  5.81 
56,  2212.88,  2222.38,  7.88,  7.00 
57,  2253.94,  2263.19,  7.50,  5.56 
58,  2295.75,  2301.69,  7.19,  6.31 
59,  2336.94,  2339.75,  7.06,  6.00 
60,  2376.75,  2378.88,  7.38,  7.00 
61,  2415.12,  2417.81,  8.88,  6.38 
62,  2453.56,  2457.19,  8.88,  6.69 
63,  2489.94,  2496.25,  9.50,  6.31 
64,  2529.81,  2536.19,  9.81,  6.38 
65,  2570.44,  2575.50,  9.38,  7.00 
66,  2607.50,  2615.88,  9.06,  6.38 
67,  2650.00,  2655.44,  8.38,  6.00 
68,  2691.44,  2694.38,  7.38,  6.81 
69,  2731.94,  2734.44,  7.19,  6.56 
70,  2772.25,  2774.06,  7.06,  7.00 
71,  2810.50,  2813.00,  10.88,  6.62 
72,  2848.81,  2852.62,  13.88,  6.62 
73,  2885.62,  2891.38,  14.00,  7.25 
74,  2925.62,  2931.19,  13.38,  6.62 
75,  2966.44,  2971.19,  12.50,  6.00 
76,  3004.38,  3010.31,  11.75,  6.94 
77,  3044.00,  3050.69,  10.50,  6.62 
78,  3085.62,  3090.06,  9.94,  5.69 
79,  3126.56,  3129.25,  9.75,  6.00 
80,  3166.88,  3169.62,  11.00,  6.06 
81,  3205.81,  3208.69,  10.12,  6.56 
82,  3244.56,  3247.62,  10.56,  6.81 
83,  3282.75,  3287.81,  10.62,  6.50 
84,  3321.94,  3327.25,  11.50,  7.06 
85,  3359.88,  3365.75,  11.19,  6.31 
86,  3399.12,  3405.12,  11.75,  6.06 
87,  3440.00,  3443.62,  10.62,  6.75 
88,  3479.62,  3481.88,  9.81,  5.81 
89,  3519.88,  3523.25,  9.75,  6.56 
90,  3561.81,  3565.38,  10.19,  7.06 
91,  3598.25,  3608.19,  10.06,  5.81 
92,  3638.69,  3646.62,  12.12,  6.31 
93,  3678.00,  3684.81,  12.31,  6.88 
94,  3717.62,  3724.38,  13.38,  7.31 
95,  3758.31,  3763.62,  13.94,  7.00 
96,  3797.06,  3804.12,  13.75,  7.00 
97,  3837.19,  3843.56,  13.69,  7.31 
98,  3876.00,  3881.31,  13.06,  6.12 
99,  3915.25,  3921.06,  13.56,  6.06 
100,  3933.75,  3936.44,  14.31,  5.75 
