refV = 3960
0,  9.69,  9.69,  3756.62,  3467.19 
1,  45.94,  47.69,  3754.94,  3467.06 
2,  84.75,  88.12,  3756.56,  3467.12 
3,  123.19,  127.06,  3757.38,  3467.12 
4,  162.12,  165.31,  3757.06,  3466.44 
5,  200.31,  204.62,  3756.69,  3466.69 
6,  240.81,  245.12,  3757.62,  3465.50 
7,  281.62,  283.38,  3756.31,  3464.94 
8,  322.06,  323.44,  3756.62,  3464.56 
9,  362.00,  363.44,  3758.81,  3462.81 
10,  402.62,  403.94,  3758.19,  3461.69 
11,  439.94,  444.94,  3759.75,  3460.31 
12,  480.12,  486.50,  3759.94,  3457.69 
13,  518.94,  524.38,  3759.94,  3455.00 
14,  557.88,  563.62,  3760.00,  3450.06 
15,  596.06,  602.94,  3760.81,  3443.31 
16,  635.56,  642.00,  3761.06,  3429.31 
17,  675.69,  681.50,  3761.88,  3398.62 
18,  716.69,  720.88,  3770.19,  3240.25 
19,  756.88,  760.62,  3790.81,  2834.88 
20,  797.00,  800.00,  3811.88,  2419.62 
21,  835.12,  838.94,  3832.69,  2027.94 
22,  873.88,  877.25,  3849.81,  1664.94 
23,  910.88,  916.50,  3866.56,  1333.81 
24,  947.94,  955.81,  3882.25,  1040.00 
25,  984.56,  994.31,  3894.19,  793.69 
26,  1024.81,  1034.12,  3904.12,  578.38 
27,  1070.44,  1073.44,  3909.62,  408.12 
28,  1110.12,  1113.31,  3910.06,  278.25 
29,  1150.75,  1153.00,  3917.38,  183.00 
30,  1190.38,  1192.06,  3922.12,  115.69 
31,  1230.06,  1231.25,  3920.19,  70.31 
32,  1267.88,  1270.94,  3920.06,  40.06 
33,  1305.62,  1309.62,  3920.31,  20.94 
34,  1342.38,  1349.56,  3919.81,  8.81 
35,  1380.94,  1389.25,  3920.50,  4.44 
36,  1423.38,  1429.06,  3919.31,  3.94 
37,  1467.00,  1468.94,  3918.25,  3.81 
38,  1506.19,  1508.00,  3919.31,  3.69 
39,  1545.88,  1547.62,  3919.19,  3.25 
40,  1586.62,  1587.31,  3920.81,  4.06 
41,  1626.06,  1626.12,  3920.94,  4.06 
42,  1664.94,  1664.38,  3922.31,  4.69 
43,  1701.94,  1703.81,  3921.50,  4.06 
44,  1739.38,  1748.00,  3922.06,  3.12 
45,  1778.12,  1785.88,  3922.62,  3.94 
46,  1816.00,  1824.19,  3923.12,  4.31 
47,  1857.69,  1866.81,  3921.88,  4.50 
48,  1899.69,  1905.38,  3921.69,  3.44 
49,  1942.69,  1945.75,  3922.88,  4.81 
50,  1983.44,  1984.31,  3923.00,  4.56 
51,  2022.75,  2023.00,  3922.62,  3.25 
52,  2061.69,  2061.75,  3923.38,  4.06 
53,  2098.44,  2100.56,  3923.06,  4.00 
54,  2136.19,  2147.38,  3924.31,  4.25 
55,  2174.62,  2186.81,  3923.38,  3.19 
56,  2213.12,  2224.06,  3924.81,  3.81 
57,  2254.50,  2264.38,  3923.38,  3.38 
58,  2296.31,  2302.31,  3924.31,  2.25 
59,  2338.19,  2341.06,  3924.75,  3.25 
60,  2378.06,  2380.44,  3923.94,  2.31 
61,  2416.25,  2419.62,  3925.44,  4.38 
62,  2453.75,  2458.88,  3927.44,  3.81 
63,  2490.69,  2498.00,  3926.44,  2.56 
64,  2531.81,  2537.50,  3927.94,  3.69 
65,  2570.88,  2577.62,  3926.88,  3.44 
66,  2610.31,  2618.12,  3927.12,  3.75 
67,  2651.62,  2658.62,  3926.19,  3.88 
68,  2692.62,  2697.25,  3924.62,  2.69 
69,  2734.06,  2736.94,  3924.56,  3.69 
70,  2772.94,  2776.44,  3924.00,  3.88 
71,  2811.75,  2815.81,  3927.44,  4.62 
72,  2852.12,  2855.31,  3932.75,  3.94 
73,  2887.50,  2894.38,  3933.12,  3.88 
74,  2928.75,  2933.44,  3932.12,  4.25 
75,  2968.00,  2973.81,  3931.31,  3.62 
76,  3007.06,  3013.56,  3929.50,  4.25 
77,  3047.50,  3053.25,  3930.00,  5.00 
78,  3088.50,  3093.50,  3929.06,  3.31 
79,  3130.00,  3132.81,  3927.81,  3.75 
80,  3168.81,  3172.12,  3928.88,  4.00 
81,  3207.56,  3212.44,  3929.38,  4.81 
82,  3247.25,  3251.00,  3929.00,  4.31 
83,  3286.44,  3290.88,  3930.44,  4.25 
84,  3324.12,  3329.94,  3929.94,  3.12 
85,  3362.75,  3369.38,  3930.75,  4.56 
86,  3401.56,  3408.06,  3930.62,  3.75 
87,  3442.38,  3446.94,  3929.75,  4.19 
88,  3482.06,  3485.88,  3929.25,  3.38 
89,  3523.81,  3527.19,  3928.56,  4.50 
90,  3562.81,  3568.19,  3927.50,  3.00 
91,  3601.75,  3610.69,  3928.06,  4.44 
92,  3641.75,  3650.25,  3932.31,  3.81 
93,  3680.12,  3689.38,  3932.62,  3.38 
94,  3721.06,  3728.69,  3933.31,  4.00 
95,  3760.69,  3768.12,  3934.19,  4.12 
96,  3800.12,  3808.25,  3933.88,  3.38 
97,  3840.38,  3846.69,  3933.62,  3.62 
98,  3879.38,  3886.38,  3932.94,  3.62 
99,  3918.88,  3926.44,  3934.19,  4.12 
100,  3938.00,  3942.62,  3935.12,  4.56 
