refV = 3956
0,  12.31,  10.81,  3919.62,  5.00 
1,  45.88,  45.19,  3916.56,  5.81 
2,  83.56,  83.81,  3916.25,  6.31 
3,  121.75,  122.00,  3916.69,  6.12 
4,  160.94,  162.06,  3917.50,  6.75 
5,  203.12,  201.62,  3917.00,  6.88 
6,  242.62,  241.38,  3916.88,  6.25 
7,  282.69,  280.38,  3916.75,  6.88 
8,  322.94,  320.00,  3918.19,  6.88 
9,  361.19,  359.31,  3918.94,  6.50 
10,  401.00,  401.00,  3918.38,  6.62 
11,  440.94,  443.75,  3919.06,  6.25 
12,  480.06,  480.56,  3919.19,  7.00 
13,  519.06,  519.94,  3920.06,  6.75 
14,  559.44,  559.56,  3918.25,  6.12 
15,  597.81,  599.69,  3919.44,  6.56 
16,  636.94,  639.12,  3919.19,  6.75 
17,  676.19,  678.50,  3918.88,  6.12 
18,  717.06,  717.25,  3918.94,  6.75 
19,  757.50,  758.25,  3918.56,  6.00 
20,  796.81,  796.75,  3918.25,  5.75 
21,  835.62,  836.38,  3918.88,  6.88 
22,  874.44,  874.94,  3918.56,  6.12 
23,  911.50,  914.38,  3918.75,  6.38 
24,  949.88,  954.25,  3919.31,  6.00 
25,  991.50,  993.50,  3919.50,  7.00 
26,  1033.44,  1034.25,  3918.75,  6.00 
27,  1072.12,  1074.44,  3917.69,  6.69 
28,  1113.19,  1114.00,  3916.69,  6.31 
29,  1153.88,  1154.12,  3914.19,  7.00 
30,  1192.94,  1194.06,  3918.75,  6.44 
31,  1233.00,  1232.81,  3913.69,  14.56 
32,  1271.00,  1271.81,  3884.88,  41.06 
33,  1308.31,  1310.56,  3825.56,  94.12 
34,  1347.19,  1350.81,  3704.94,  201.81 
35,  1389.06,  1389.88,  3474.06,  408.38 
36,  1430.69,  1429.38,  3064.75,  773.06 
37,  1468.56,  1468.50,  2410.06,  1358.44 
38,  1508.56,  1507.62,  1469.38,  2201.81 
39,  1548.88,  1547.12,  258.12,  3284.50 
40,  1588.50,  1586.50,  76.75,  3449.81 
41,  1628.25,  1626.06,  64.06,  3462.62 
42,  1666.81,  1664.12,  58.81,  3467.12 
43,  1704.62,  1707.12,  57.38,  3471.00 
44,  1742.19,  1747.12,  55.62,  3472.31 
45,  1780.75,  1786.00,  55.25,  3473.38 
46,  1819.69,  1823.75,  55.12,  3474.50 
47,  1860.88,  1859.81,  54.25,  3474.38 
48,  1902.50,  1905.06,  53.06,  3474.88 
49,  1944.31,  1944.38,  53.75,  3474.31 
50,  1985.06,  1984.12,  53.81,  3475.19 
51,  2024.31,  2022.69,  53.50,  3475.75 
52,  2063.00,  2061.44,  54.38,  3474.69 
53,  2100.06,  2109.12,  54.00,  3475.31 
54,  2138.19,  2145.81,  54.75,  3475.62 
55,  2176.94,  2184.44,  54.12,  3475.25 
56,  2215.62,  2222.19,  54.62,  3474.69 
57,  2257.12,  2260.50,  54.25,  3476.12 
58,  2298.94,  2301.44,  54.38,  3475.38 
59,  2340.50,  2340.19,  54.62,  3475.44 
60,  2379.12,  2378.81,  55.06,  3474.81 
61,  2418.62,  2418.06,  56.94,  3475.56 
62,  2456.31,  2457.56,  56.12,  3475.69 
63,  2492.56,  2497.12,  55.81,  3476.25 
64,  2532.31,  2536.38,  56.19,  3476.56 
65,  2572.69,  2576.69,  56.12,  3475.69 
66,  2611.81,  2616.31,  55.62,  3476.56 
67,  2652.69,  2655.19,  55.25,  3476.06 
68,  2694.50,  2695.25,  55.06,  3476.88 
69,  2735.19,  2734.56,  54.00,  3476.12 
70,  2774.38,  2774.44,  55.62,  3476.38 
71,  2813.12,  2813.25,  58.25,  3476.88 
72,  2852.56,  2852.25,  58.12,  3476.12 
73,  2889.25,  2892.25,  59.94,  3477.56 
74,  2926.88,  2932.00,  59.81,  3476.38 
75,  2968.19,  2972.00,  59.19,  3476.38 
76,  3009.06,  3011.06,  58.38,  3476.38 
77,  3049.50,  3050.56,  57.88,  3475.81 
78,  3090.12,  3090.06,  56.56,  3476.50 
79,  3129.81,  3130.25,  57.56,  3476.44 
80,  3169.06,  3169.81,  57.88,  3474.94 
81,  3208.56,  3209.81,  58.81,  3475.69 
82,  3247.62,  3249.12,  58.44,  3476.62 
83,  3285.81,  3288.44,  59.00,  3478.75 
84,  3325.50,  3327.94,  59.06,  3476.50 
85,  3363.12,  3366.81,  59.44,  3475.75 
86,  3402.50,  3406.19,  59.25,  3476.50 
87,  3443.12,  3445.38,  58.88,  3476.88 
88,  3483.12,  3483.62,  58.31,  3476.50 
89,  3524.38,  3522.62,  58.19,  3476.94 
90,  3562.06,  3566.31,  57.62,  3476.94 
91,  3602.19,  3610.50,  57.12,  3476.62 
92,  3641.50,  3646.38,  58.00,  3476.38 
93,  3680.12,  3685.75,  60.12,  3476.56 
94,  3720.50,  3724.75,  60.31,  3477.00 
95,  3762.12,  3765.06,  61.19,  3477.44 
96,  3801.88,  3804.38,  60.69,  3477.50 
97,  3841.12,  3843.44,  60.75,  3476.06 
98,  3880.25,  3883.25,  61.31,  3476.88 
99,  3918.38,  3922.06,  60.69,  3476.62 
100,  3936.81,  3938.94,  62.56,  3476.31 
