refV = 3956
0,  11.69,  13.19,  3923.88,  4.94 
1,  43.56,  44.69,  3918.62,  4.94 
2,  80.00,  82.12,  3917.69,  4.31 
3,  118.38,  119.00,  3918.06,  4.81 
4,  155.94,  159.88,  3917.94,  4.12 
5,  195.88,  198.62,  3918.31,  4.00 
6,  237.50,  237.06,  3918.12,  5.06 
7,  277.62,  278.50,  3918.50,  5.25 
8,  318.12,  320.62,  3919.31,  4.62 
9,  358.31,  359.88,  3919.00,  5.00 
10,  396.75,  399.06,  3919.25,  4.88 
11,  436.06,  437.75,  3919.69,  4.94 
12,  475.81,  477.06,  3919.38,  4.50 
13,  514.69,  521.50,  3919.81,  4.69 
14,  553.50,  559.19,  3919.38,  4.94 
15,  592.06,  599.31,  3919.69,  4.31 
16,  632.19,  637.31,  3920.00,  4.94 
17,  671.94,  676.69,  3919.81,  4.12 
18,  712.69,  716.56,  3919.19,  4.38 
19,  753.50,  757.50,  3918.94,  4.94 
20,  793.25,  795.62,  3919.25,  4.50 
21,  832.38,  834.81,  3919.75,  4.00 
22,  871.12,  874.69,  3919.44,  5.25 
23,  908.25,  913.19,  3919.69,  4.25 
24,  944.50,  952.94,  3920.12,  4.00 
25,  983.50,  991.50,  3919.88,  3.50 
26,  1025.12,  1032.25,  3920.25,  3.44 
27,  1066.50,  1073.44,  3918.38,  4.81 
28,  1111.12,  1113.25,  3917.88,  4.81 
29,  1150.88,  1153.25,  3917.12,  5.12 
30,  1190.19,  1192.25,  3919.94,  4.31 
31,  1229.44,  1230.81,  3923.69,  14.19 
32,  1268.56,  1271.19,  3923.25,  41.88 
33,  1305.06,  1309.50,  3923.12,  98.38 
34,  1342.12,  1349.75,  3922.38,  212.62 
35,  1381.06,  1388.94,  3917.56,  427.88 
36,  1420.69,  1428.12,  3898.31,  806.38 
37,  1460.75,  1468.75,  3867.62,  1409.19 
38,  1508.31,  1508.81,  3823.75,  2271.56 
39,  1548.06,  1548.62,  3768.31,  3342.69 
40,  1589.62,  1589.88,  3764.31,  3454.19 
41,  1628.81,  1628.81,  3766.94,  3466.12 
42,  1667.81,  1668.19,  3767.69,  3471.19 
43,  1704.75,  1710.94,  3768.38,  3474.62 
44,  1742.50,  1751.19,  3768.06,  3475.31 
45,  1780.81,  1789.75,  3768.38,  3476.38 
46,  1819.69,  1827.19,  3769.75,  3478.88 
47,  1861.31,  1863.94,  3769.00,  3478.12 
48,  1903.44,  1909.25,  3768.56,  3478.19 
49,  1945.25,  1948.25,  3768.31,  3478.81 
50,  1986.19,  1986.56,  3768.81,  3479.00 
51,  2025.81,  2026.75,  3769.00,  3478.44 
52,  2064.44,  2065.12,  3768.69,  3479.06 
53,  2101.81,  2112.19,  3769.88,  3478.88 
54,  2139.44,  2149.88,  3769.06,  3478.69 
55,  2177.69,  2187.94,  3770.12,  3479.12 
56,  2215.88,  2225.44,  3770.38,  3479.56 
57,  2256.69,  2264.12,  3770.00,  3478.50 
58,  2299.38,  2305.75,  3770.50,  3479.75 
59,  2340.38,  2344.62,  3770.94,  3479.75 
60,  2379.56,  2383.75,  3771.19,  3479.31 
61,  2416.50,  2422.88,  3773.06,  3479.88 
62,  2455.12,  2461.88,  3772.12,  3479.19 
63,  2497.94,  2501.75,  3771.88,  3479.69 
64,  2535.75,  2541.50,  3773.44,  3480.00 
65,  2574.00,  2581.75,  3772.06,  3479.25 
66,  2612.31,  2621.31,  3772.00,  3479.69 
67,  2654.56,  2660.75,  3771.31,  3479.69 
68,  2695.75,  2700.12,  3771.38,  3479.38 
69,  2736.44,  2739.81,  3770.56,  3479.88 
70,  2775.75,  2778.94,  3773.38,  3479.50 
71,  2813.25,  2817.94,  3774.25,  3479.44 
72,  2852.44,  2857.75,  3774.75,  3479.62 
73,  2893.56,  2897.31,  3776.44,  3479.12 
74,  2930.88,  2936.25,  3775.56,  3479.38 
75,  2970.81,  2976.69,  3775.50,  3479.75 
76,  3010.56,  3016.38,  3775.12,  3479.00 
77,  3050.44,  3055.50,  3774.00,  3479.69 
78,  3091.81,  3096.88,  3774.88,  3479.81 
79,  3132.25,  3136.50,  3774.69,  3479.38 
80,  3171.56,  3175.25,  3774.25,  3479.56 
81,  3209.56,  3214.56,  3776.06,  3479.44 
82,  3249.00,  3253.69,  3774.81,  3479.31 
83,  3287.81,  3292.94,  3775.50,  3480.31 
84,  3325.94,  3332.06,  3775.88,  3479.31 
85,  3365.44,  3371.50,  3777.25,  3480.06 
86,  3403.81,  3409.75,  3776.62,  3480.69 
87,  3445.31,  3448.56,  3776.50,  3480.06 
88,  3485.06,  3492.06,  3775.69,  3480.25 
89,  3525.12,  3531.69,  3775.50,  3480.44 
90,  3565.12,  3571.19,  3775.56,  3479.56 
91,  3604.38,  3610.88,  3773.75,  3480.62 
92,  3643.38,  3650.12,  3775.94,  3479.81 
93,  3682.81,  3692.56,  3778.12,  3479.81 
94,  3721.81,  3731.50,  3778.62,  3480.00 
95,  3763.25,  3770.06,  3778.50,  3479.50 
96,  3803.38,  3810.19,  3778.31,  3479.50 
97,  3842.31,  3849.12,  3779.56,  3480.50 
98,  3882.00,  3888.75,  3778.69,  3480.06 
99,  3920.25,  3927.19,  3778.94,  3480.06 
100,  3940.69,  3943.75,  3778.38,  3479.69 
